sim/scripts/srcdescr.vcd
$date
	Fri May 09 21:40:47 2025
$end
$version
	ModelSim Version 2020.4
$end
$timescale
	1ns
$end

$scope module tb_scrdescr $end
$var reg 1 ! clk $end
$var reg 1 " start $end
$var reg 32 # data_in [31:0] $end
$var reg 1 $ out $end
$var reg 1 % in $end

$scope module dut $end
$var wire 1 & clk $end
$var wire 1 ' rst_n $end
$var wire 1 ( start $end
$var wire 1 ) in $end
$var reg 1 * out $end
$var reg 1 + out_scr $end

$scope module scr_inst $end
$var wire 1 & clk $end
$var wire 1 , rst_n $end
$var wire 1 ( start $end
$var wire 1 ) in $end
$var reg 1 - out $end
$var reg 12 . shift_reg [0:11] $end
$var reg 1 / tmp_xor $end
$upscope $end

$scope module descr_inst $end
$var wire 1 & clk $end
$var wire 1 0 rst_n $end
$var wire 1 ( start $end
$var wire 1 1 in $end
$var reg 1 2 out $end
$var reg 12 3 shift_reg [0:11] $end
$var reg 1 4 tmp_xor $end
$upscope $end
$upscope $end
$upscope $end
$enddefinitions $end
#0
$dumpvars
0!
0"
b11011110101011011011111011101111 #
x$
x%
x*
x+
x-
b100010011111 .
0/
x2
b100010011111 3
04
x)
0(
0&
z'
x1
z,
z0
$end
#10
1"
1!
1(
1&
b10001001111 .
b10001001111 3
#20
1%
0"
0!
1)
0(
1-
1+
11
12
1*
1$
0&
#30
1!
1&
14
b1000100111 3
1/
b1000100111 .
0-
02
0*
0+
0$
01
12
1*
1$
#40
0!
0&
#50
1!
1&
b100010011 .
b100100010011 .
b100010011 3
b100100010011 3
#60
0%
0!
0)
1-
1+
11
02
0*
0$
0&
#70
1!
1&
b10010001001 3
b110010001001 3
b10010001001 .
b110010001001 .
#80
1%
0!
1)
0-
0+
01
12
1*
1$
0&
#90
1!
1&
b11001000100 .
b111001000100 .
b11001000100 3
b111001000100 3
#100
0!
0&
#110
1!
1&
b11100100010 3
b111100100010 3
b11100100010 .
b111100100010 .
#120
0!
0&
#130
1!
1&
b11110010001 .
b111110010001 .
b11110010001 3
b111110010001 3
#140
0!
0&
#150
1!
1&
04
b11111001000 3
b111111001000 3
0/
b11111001000 .
b111111001000 .
1-
02
0*
1+
0$
11
12
1*
1$
#160
0%
0!
0)
0-
0+
01
02
0*
0$
0&
#170
1!
1&
b11111100100 .
b11111100100 3
#180
1%
0!
1)
1-
1+
11
12
1*
1$
0&
#190
1!
1&
14
b1111110010 3
1/
b1111110010 .
0-
02
0*
0+
0$
01
12
1*
1$
#200
0%
0!
0)
1-
1+
11
02
0*
0$
0&
#210
1!
1&
0/
b111111001 .
b100111111001 .
04
b111111001 3
b100111111001 3
12
0-
0+
1*
1$
01
02
0*
0$
#220
1%
0!
1)
1-
1+
11
12
1*
1$
0&
#230
1!
1&
b10011111100 3
b10011111100 .
#240
0%
0!
0)
0-
0+
01
02
0*
0$
0&
#250
1!
1&
b1001111110 .
b1001111110 3
#260
1%
0!
1)
1-
1+
11
12
1*
1$
0&
#270
1!
1&
14
b100111111 3
1/
b100111111 .
0-
02
0*
0+
0$
01
12
1*
1$
#280
0!
0&
#290
1!
1&
0/
b10011111 .
b100010011111 .
04
b10011111 3
b100010011111 3
02
1-
1+
0*
0$
11
12
1*
1$
#300
0%
0!
0)
0-
0+
01
02
0*
0$
0&
#310
1!
1&
b10001001111 3
b10001001111 .
#320
1%
0!
1)
1-
1+
11
12
1*
1$
0&
#330
1!
1&
1/
b1000100111 .
14
b1000100111 3
02
0-
0+
0*
0$
01
12
1*
1$
#340
0!
0&
#350
1!
1&
b100010011 3
b100100010011 3
b100010011 .
b100100010011 .
#360
0%
0!
0)
1-
1+
11
02
0*
0$
0&
#370
1!
1&
b10010001001 .
b110010001001 .
b10010001001 3
b110010001001 3
#380
1%
0!
1)
0-
0+
01
12
1*
1$
0&
#390
1!
1&
b11001000100 3
b111001000100 3
b11001000100 .
b111001000100 .
#400
0!
0&
#410
1!
1&
b11100100010 .
b111100100010 .
b11100100010 3
b111100100010 3
#420
0!
0&
#430
1!
1&
b11110010001 3
b111110010001 3
b11110010001 .
b111110010001 .
#440
0!
0&
#450
1!
1&
0/
b11111001000 .
b111111001000 .
04
b11111001000 3
b111111001000 3
02
1-
1+
0*
0$
11
12
1*
1$
#460
0!
0&
#470
1!
1&
b11111100100 3
b11111100100 .
#480
0%
0!
0)
0-
0+
01
02
0*
0$
0&
#490
1!
1&
1/
b1111110010 .
14
b1111110010 3
12
1-
1+
1*
1$
11
02
0*
0$
#500
1%
0!
1)
0-
0+
01
12
1*
1$
0&
#510
1!
1&
04
b111111001 3
b100111111001 3
0/
b111111001 .
b100111111001 .
1-
02
0*
1+
0$
11
12
1*
1$
#520
0!
0&
#530
1!
1&
b10011111100 .
b10011111100 3
#540
0!
0&
#550
1!
1&
b1001111110 3
b1001111110 .
#560
0%
0!
0)
0-
0+
01
02
0*
0$
0&
#570
1!
1&
1/
b100111111 .
14
b100111111 3
12
1-
1+
1*
1$
11
02
0*
0$
#580
1%
0!
1)
0-
0+
01
12
1*
1$
0&
#590
1!
1&
04
b10011111 3
b100010011111 3
0/
b10011111 .
b100010011111 .
1-
02
0*
1+
0$
11
12
1*
1$
#600
0!
0&
#610
1!
1&
b10001001111 .
b10001001111 3
#620
0!
0&
#630
1!
1&
14
b1000100111 3
1/
b1000100111 .
0-
02
0*
0+
0$
01
12
1*
1$
#640
0!
0&
#650
1!
1&
b100010011 .
b100100010011 .
b100010011 3
b100100010011 3
#660
0!
0&
#670
1!
1&
b10010001001 3
b110010001001 3
b10010001001 .
b110010001001 .
#680
0!
0&
#690
1!
1&
b11001000100 .
b111001000100 .
b11001000100 3
b111001000100 3
#700
0!
0&
#710
1!
1&
b11100100010 3
b111100100010 3
b11100100010 .
b111100100010 .
#720
0!
0&
#730
1!
1&
b11110010001 .
b111110010001 .
b11110010001 3
b111110010001 3
#740
0!
0&
#750
1!
1&
04
b11111001000 3
b111111001000 3
0/
b11111001000 .
b111111001000 .
1-
02
0*
1+
0$
11
12
1*
1$
#760
0!
0&
#770
1!
1&
b11111100100 .
b11111100100 3
#780
0!
0&
#790
1!
1&
14
b1111110010 3
1/
b1111110010 .
0-
02
0*
0+
0$
01
12
1*
1$
#800
0!
0&
#810
1!
1&
0/
b111111001 .
b100111111001 .
04
b111111001 3
b100111111001 3
02
1-
1+
0*
0$
11
12
1*
1$
#820
0!
0&
#830
1!
1&
b10011111100 3
b10011111100 .
#840
0!
0&
#850
1!
1&
b1001111110 .
b1001111110 3
#860
0!
0&
#870
1!
1&
14
b100111111 3
1/
b100111111 .
0-
02
0*
0+
0$
01
12
1*
1$
#880
0!
0&
#890
1!
1&
0/
b10011111 .
b100010011111 .
04
b10011111 3
b100010011111 3
02
1-
1+
0*
0$
11
12
1*
1$
#900
0!
0&
#910
1!
1&
b10001001111 3
b10001001111 .
#920
0!
0&
#930
1!
1&
1/
b1000100111 .
14
b1000100111 3
02
0-
0+
0*
0$
01
12
1*
1$
#940
0!
0&
#950
1!
1&
b100010011 3
b100100010011 3
b100010011 .
b100100010011 .
#960
0!
0&
#970
1!
1&
b10010001001 .
b110010001001 .
b10010001001 3
b110010001001 3
#980
0!
0&
#990
1!
1&
b11001000100 3
b111001000100 3
b11001000100 .
b111001000100 .
#1000
0!
0&
#1010
1!
1&
b11100100010 .
b111100100010 .
b11100100010 3
b111100100010 3
#1020
0!
0&
#1030
1!
1&
b11110010001 3
b111110010001 3
b11110010001 .
b111110010001 .
#1040
0!
0&
#1050
1!
1&
0/
b11111001000 .
b111111001000 .
04
b11111001000 3
b111111001000 3
02
1-
1+
0*
0$
11
12
1*
1$
#1060
0!
0&
#1070
1!
1&
b11111100100 3
b11111100100 .
#1080
0!
0&
#1090
1!
1&
1/
b1111110010 .
14
b1111110010 3
02
0-
0+
0*
0$
01
12
1*
1$
#1100
0!
0&
#1110
1!
1&
04
b111111001 3
b100111111001 3
0/
b111111001 .
b100111111001 .
1-
02
0*
1+
0$
11
12
1*
1$
#1120
0!
0&
#1130
1!
1&
b10011111100 .
b10011111100 3
#1140
0!
0&
#1150
1!
1&
b1001111110 3
b1001111110 .
#1160
0!
0&
#1170
1!
1&
1/
b100111111 .
14
b100111111 3
02
0-
0+
0*
0$
01
12
1*
1$
#1180
0!
0&
#1190
1!
1&
04
b10011111 3
b100010011111 3
0/
b10011111 .
b100010011111 .
1-
02
0*
1+
0$
11
12
1*
1$
#1200
0!
0&
#1210
1!
1&
b10001001111 .
b10001001111 3
#1220
0!
0&
#1230
1!
1&
14
b1000100111 3
1/
b1000100111 .
0-
02
0*
0+
0$
01
12
1*
1$
#1240
0!
0&
#1250
1!
1&
b100010011 .
b100100010011 .
b100010011 3
b100100010011 3
#1260
0!
0&
#1270
1!
1&
b10010001001 3
b110010001001 3
b10010001001 .
b110010001001 .
#1280
0!
0&
#1290
1!
1&
b11001000100 .
b111001000100 .
b11001000100 3
b111001000100 3
#1300
0!
0&
#1310
1!
1&
b11100100010 3
b111100100010 3
b11100100010 .
b111100100010 .
#1320
0!
0&
#1330
1!
1&
b11110010001 .
b111110010001 .
b11110010001 3
b111110010001 3
#1340
0!
0&
#1350
1!
1&
04
b11111001000 3
b111111001000 3
0/
b11111001000 .
b111111001000 .
1-
02
0*
1+
0$
11
12
1*
1$
#1360
0!
0&
#1370
1!
1&
b11111100100 .
b11111100100 3
#1380
0!
0&
#1390
1!
1&
14
b1111110010 3
1/
b1111110010 .
0-
02
0*
0+
0$
01
12
1*
1$
#1400
0!
0&
#1410
1!
1&
0/
b111111001 .
b100111111001 .
04
b111111001 3
b100111111001 3
02
1-
1+
0*
0$
11
12
1*
1$
#1420
0!
0&
#1430
1!
1&
b10011111100 3
b10011111100 .
#1440
0!
0&
#1450
1!
1&
b1001111110 .
b1001111110 3
#1460
0!
0&
#1470
1!
1&
14
b100111111 3
1/
b100111111 .
0-
02
0*
0+
0$
01
12
1*
1$
#1480
0!
0&
#1490
1!
1&
0/
b10011111 .
b100010011111 .
04
b10011111 3
b100010011111 3
02
1-
1+
0*
0$
11
12
1*
1$
#1500
0!
0&
#1510
1!
1&
b10001001111 3
b10001001111 .
#1520
0!
0&
#1530
1!
1&
1/
b1000100111 .
14
b1000100111 3
02
0-
0+
0*
0$
01
12
1*
1$
#1540
0!
0&
#1550
1!
1&
b100010011 3
b100100010011 3
b100010011 .
b100100010011 .
#1560
0!
0&
#1570
1!
1&
b10010001001 .
b110010001001 .
b10010001001 3
b110010001001 3
#1580
0!
0&
#1590
1!
1&
b11001000100 3
b111001000100 3
b11001000100 .
b111001000100 .
#1600
0!
0&
#1610
1!
1&
b11100100010 .
b111100100010 .
b11100100010 3
b111100100010 3
#1620
0!
0&
#1630
1!
1&
b11110010001 3
b111110010001 3
b11110010001 .
b111110010001 .
#1640
0!
0&
#1650
1!
1&
0/
b11111001000 .
b111111001000 .
04
b11111001000 3
b111111001000 3
02
1-
1+
0*
0$
11
12
1*
1$
#1660
0!
0&
#1670
1!
1&
b11111100100 3
b11111100100 .
#1680
0!
0&
#1690
1!
1&
1/
b1111110010 .
14
b1111110010 3
02
0-
0+
0*
0$
01
12
1*
1$
#1700
0!
0&
#1710
1!
1&
04
b111111001 3
b100111111001 3
0/
b111111001 .
b100111111001 .
1-
02
0*
1+
0$
11
12
1*
1$
#1720
0!
0&
#1730
1!
1&
b10011111100 .
b10011111100 3
#1740
0!
0&
#1750
1!
1&
b1001111110 3
b1001111110 .
#1760
0!
0&
#1770
1!
1&
1/
b100111111 .
14
b100111111 3
02
0-
0+
0*
0$
01
12
1*
1$
#1780
0!
0&
#1790
1!
1&
04
b10011111 3
b100010011111 3
0/
b10011111 .
b100010011111 .
1-
02
0*
1+
0$
11
12
1*
1$
#1800
0!
0&
#1810
1!
1&
b10001001111 .
b10001001111 3
#1820
0!
0&
#1830
1!
1&
14
b1000100111 3
1/
b1000100111 .
0-
02
0*
0+
0$
01
12
1*
1$
#1840
0!
0&
#1850
1!
1&
b100010011 .
b100100010011 .
b100010011 3
b100100010011 3
#1860
0!
0&
#1870
1!
1&
b10010001001 3
b110010001001 3
b10010001001 .
b110010001001 .
#1880
0!
0&
#1890
1!
1&
b11001000100 .
b111001000100 .
b11001000100 3
b111001000100 3
#1900
0!
0&
#1910
1!
1&
b11100100010 3
b111100100010 3
b11100100010 .
b111100100010 .
#1920
0!
0&
#1930
1!
1&
b11110010001 .
b111110010001 .
b11110010001 3
b111110010001 3
#1940
0!
0&
#1950
1!
1&
04
b11111001000 3
b111111001000 3
0/
b11111001000 .
b111111001000 .
1-
02
0*
1+
0$
11
12
1*
1$
#1960
0!
0&
#1970
1!
1&
b11111100100 .
b11111100100 3
#1980
0!
0&
#1990
1!
1&
14
b1111110010 3
1/
b1111110010 .
0-
02
0*
0+
0$
01
12
1*
1$
