sim/scripts/tx_top.vcd
$date
	Sat May 10 14:56:47 2025
$end
$version
	ModelSim Version 2020.4
$end
$timescale
	1ns
$end

$scope module tb_tx_top $end
$var reg 1 ! clk $end
$var reg 1 " rst_n $end
$var reg 1 # Cin $end
$var reg 32 $ Din [31:0] $end
$var reg 32 % Dout [31:0] $end

$scope module tx_top_dut $end
$var wire 1 & clk $end
$var wire 1 ' rst_n $end
$var wire 1 ( Cin $end
$var wire 1 ) Din [31] $end
$var wire 1 * Din [30] $end
$var wire 1 + Din [29] $end
$var wire 1 , Din [28] $end
$var wire 1 - Din [27] $end
$var wire 1 . Din [26] $end
$var wire 1 / Din [25] $end
$var wire 1 0 Din [24] $end
$var wire 1 1 Din [23] $end
$var wire 1 2 Din [22] $end
$var wire 1 3 Din [21] $end
$var wire 1 4 Din [20] $end
$var wire 1 5 Din [19] $end
$var wire 1 6 Din [18] $end
$var wire 1 7 Din [17] $end
$var wire 1 8 Din [16] $end
$var wire 1 9 Din [15] $end
$var wire 1 : Din [14] $end
$var wire 1 ; Din [13] $end
$var wire 1 < Din [12] $end
$var wire 1 = Din [11] $end
$var wire 1 > Din [10] $end
$var wire 1 ? Din [9] $end
$var wire 1 @ Din [8] $end
$var wire 1 A Din [7] $end
$var wire 1 B Din [6] $end
$var wire 1 C Din [5] $end
$var wire 1 D Din [4] $end
$var wire 1 E Din [3] $end
$var wire 1 F Din [2] $end
$var wire 1 G Din [1] $end
$var wire 1 H Din [0] $end
$var reg 32 I Dout [31:0] $end
$var reg 8 J Dout_ser [7:0] $end
$var reg 1 K Done_ser $end
$var reg 8 L done_scr [7:0] $end
$var reg 8 M done_dscr [7:0] $end
$var reg 8 N out_scr [7:0] $end
$var reg 8 O data_out_me [7:0] $end
$var reg 8 P data_out_md [7:0] $end
$var reg 8 Q out_dscr [7:0] $end
$var wire 1 R Done $end

$scope begin stage[7] $end
$var parameter 32 S i $end

$scope module scr_inst $end
$var wire 1 & clk $end
$var wire 1 ' rst_n $end
$var wire 1 ( start $end
$var wire 1 T in $end
$var reg 1 U done $end
$var reg 1 V out $end
$var reg 12 W shift_reg [0:11] $end
$var reg 1 X tmp_xor $end
$var reg 5 Y count [4:0] $end
$var reg 1 Z shifting $end
$upscope $end

$scope module me_inst $end
$var wire 1 [ data_in $end
$var wire 1 & clk $end
$var reg 1 \ data_out $end
$upscope $end

$scope module md_inst $end
$var wire 1 ] data_in $end
$var wire 1 & clk $end
$var reg 1 ^ data_out $end
$upscope $end

$scope module dscr_inst $end
$var wire 1 & clk $end
$var wire 1 ' rst_n $end
$var wire 1 ( start $end
$var wire 1 _ in $end
$var reg 1 ` done $end
$var reg 1 a out $end
$var reg 12 b shift_reg [0:11] $end
$var reg 1 c tmp_xor $end
$var reg 5 d count [4:0] $end
$var reg 1 e shifting $end
$upscope $end
$upscope $end

$scope begin stage[6] $end
$var parameter 32 f i $end

$scope module scr_inst $end
$var wire 1 & clk $end
$var wire 1 ' rst_n $end
$var wire 1 ( start $end
$var wire 1 g in $end
$var reg 1 h done $end
$var reg 1 i out $end
$var reg 12 j shift_reg [0:11] $end
$var reg 1 k tmp_xor $end
$var reg 5 l count [4:0] $end
$var reg 1 m shifting $end
$upscope $end

$scope module me_inst $end
$var wire 1 n data_in $end
$var wire 1 & clk $end
$var reg 1 o data_out $end
$upscope $end

$scope module md_inst $end
$var wire 1 p data_in $end
$var wire 1 & clk $end
$var reg 1 q data_out $end
$upscope $end

$scope module dscr_inst $end
$var wire 1 & clk $end
$var wire 1 ' rst_n $end
$var wire 1 ( start $end
$var wire 1 r in $end
$var reg 1 s done $end
$var reg 1 t out $end
$var reg 12 u shift_reg [0:11] $end
$var reg 1 v tmp_xor $end
$var reg 5 w count [4:0] $end
$var reg 1 x shifting $end
$upscope $end
$upscope $end

$scope begin stage[5] $end
$var parameter 32 y i $end

$scope module scr_inst $end
$var wire 1 & clk $end
$var wire 1 ' rst_n $end
$var wire 1 ( start $end
$var wire 1 z in $end
$var reg 1 { done $end
$var reg 1 | out $end
$var reg 12 } shift_reg [0:11] $end
$var reg 1 ~ tmp_xor $end
$var reg 5 !! count [4:0] $end
$var reg 1 "! shifting $end
$upscope $end

$scope module me_inst $end
$var wire 1 #! data_in $end
$var wire 1 & clk $end
$var reg 1 $! data_out $end
$upscope $end

$scope module md_inst $end
$var wire 1 %! data_in $end
$var wire 1 & clk $end
$var reg 1 &! data_out $end
$upscope $end

$scope module dscr_inst $end
$var wire 1 & clk $end
$var wire 1 ' rst_n $end
$var wire 1 ( start $end
$var wire 1 '! in $end
$var reg 1 (! done $end
$var reg 1 )! out $end
$var reg 12 *! shift_reg [0:11] $end
$var reg 1 +! tmp_xor $end
$var reg 5 ,! count [4:0] $end
$var reg 1 -! shifting $end
$upscope $end
$upscope $end

$scope begin stage[4] $end
$var parameter 32 .! i $end

$scope module scr_inst $end
$var wire 1 & clk $end
$var wire 1 ' rst_n $end
$var wire 1 ( start $end
$var wire 1 /! in $end
$var reg 1 0! done $end
$var reg 1 1! out $end
$var reg 12 2! shift_reg [0:11] $end
$var reg 1 3! tmp_xor $end
$var reg 5 4! count [4:0] $end
$var reg 1 5! shifting $end
$upscope $end

$scope module me_inst $end
$var wire 1 6! data_in $end
$var wire 1 & clk $end
$var reg 1 7! data_out $end
$upscope $end

$scope module md_inst $end
$var wire 1 8! data_in $end
$var wire 1 & clk $end
$var reg 1 9! data_out $end
$upscope $end

$scope module dscr_inst $end
$var wire 1 & clk $end
$var wire 1 ' rst_n $end
$var wire 1 ( start $end
$var wire 1 :! in $end
$var reg 1 ;! done $end
$var reg 1 <! out $end
$var reg 12 =! shift_reg [0:11] $end
$var reg 1 >! tmp_xor $end
$var reg 5 ?! count [4:0] $end
$var reg 1 @! shifting $end
$upscope $end
$upscope $end

$scope begin stage[3] $end
$var parameter 32 A! i $end

$scope module scr_inst $end
$var wire 1 & clk $end
$var wire 1 ' rst_n $end
$var wire 1 ( start $end
$var wire 1 B! in $end
$var reg 1 C! done $end
$var reg 1 D! out $end
$var reg 12 E! shift_reg [0:11] $end
$var reg 1 F! tmp_xor $end
$var reg 5 G! count [4:0] $end
$var reg 1 H! shifting $end
$upscope $end

$scope module me_inst $end
$var wire 1 I! data_in $end
$var wire 1 & clk $end
$var reg 1 J! data_out $end
$upscope $end

$scope module md_inst $end
$var wire 1 K! data_in $end
$var wire 1 & clk $end
$var reg 1 L! data_out $end
$upscope $end

$scope module dscr_inst $end
$var wire 1 & clk $end
$var wire 1 ' rst_n $end
$var wire 1 ( start $end
$var wire 1 M! in $end
$var reg 1 N! done $end
$var reg 1 O! out $end
$var reg 12 P! shift_reg [0:11] $end
$var reg 1 Q! tmp_xor $end
$var reg 5 R! count [4:0] $end
$var reg 1 S! shifting $end
$upscope $end
$upscope $end

$scope begin stage[2] $end
$var parameter 32 T! i $end

$scope module scr_inst $end
$var wire 1 & clk $end
$var wire 1 ' rst_n $end
$var wire 1 ( start $end
$var wire 1 U! in $end
$var reg 1 V! done $end
$var reg 1 W! out $end
$var reg 12 X! shift_reg [0:11] $end
$var reg 1 Y! tmp_xor $end
$var reg 5 Z! count [4:0] $end
$var reg 1 [! shifting $end
$upscope $end

$scope module me_inst $end
$var wire 1 \! data_in $end
$var wire 1 & clk $end
$var reg 1 ]! data_out $end
$upscope $end

$scope module md_inst $end
$var wire 1 ^! data_in $end
$var wire 1 & clk $end
$var reg 1 _! data_out $end
$upscope $end

$scope module dscr_inst $end
$var wire 1 & clk $end
$var wire 1 ' rst_n $end
$var wire 1 ( start $end
$var wire 1 `! in $end
$var reg 1 a! done $end
$var reg 1 b! out $end
$var reg 12 c! shift_reg [0:11] $end
$var reg 1 d! tmp_xor $end
$var reg 5 e! count [4:0] $end
$var reg 1 f! shifting $end
$upscope $end
$upscope $end

$scope begin stage[1] $end
$var parameter 32 g! i $end

$scope module scr_inst $end
$var wire 1 & clk $end
$var wire 1 ' rst_n $end
$var wire 1 ( start $end
$var wire 1 h! in $end
$var reg 1 i! done $end
$var reg 1 j! out $end
$var reg 12 k! shift_reg [0:11] $end
$var reg 1 l! tmp_xor $end
$var reg 5 m! count [4:0] $end
$var reg 1 n! shifting $end
$upscope $end

$scope module me_inst $end
$var wire 1 o! data_in $end
$var wire 1 & clk $end
$var reg 1 p! data_out $end
$upscope $end

$scope module md_inst $end
$var wire 1 q! data_in $end
$var wire 1 & clk $end
$var reg 1 r! data_out $end
$upscope $end

$scope module dscr_inst $end
$var wire 1 & clk $end
$var wire 1 ' rst_n $end
$var wire 1 ( start $end
$var wire 1 s! in $end
$var reg 1 t! done $end
$var reg 1 u! out $end
$var reg 12 v! shift_reg [0:11] $end
$var reg 1 w! tmp_xor $end
$var reg 5 x! count [4:0] $end
$var reg 1 y! shifting $end
$upscope $end
$upscope $end

$scope begin stage[0] $end
$var parameter 32 z! i $end

$scope module scr_inst $end
$var wire 1 & clk $end
$var wire 1 ' rst_n $end
$var wire 1 ( start $end
$var wire 1 {! in $end
$var reg 1 |! done $end
$var reg 1 }! out $end
$var reg 12 ~! shift_reg [0:11] $end
$var reg 1 !" tmp_xor $end
$var reg 5 "" count [4:0] $end
$var reg 1 #" shifting $end
$upscope $end

$scope module me_inst $end
$var wire 1 $" data_in $end
$var wire 1 & clk $end
$var reg 1 %" data_out $end
$upscope $end

$scope module md_inst $end
$var wire 1 &" data_in $end
$var wire 1 & clk $end
$var reg 1 '" data_out $end
$upscope $end

$scope module dscr_inst $end
$var wire 1 & clk $end
$var wire 1 ' rst_n $end
$var wire 1 ( start $end
$var wire 1 (" in $end
$var reg 1 )" done $end
$var reg 1 *" out $end
$var reg 12 +" shift_reg [0:11] $end
$var reg 1 ," tmp_xor $end
$var reg 5 -" count [4:0] $end
$var reg 1 ." shifting $end
$upscope $end
$upscope $end

$scope module ser_inst $end
$var wire 1 & clk $end
$var wire 1 ' rst_n $end
$var wire 1 ( Cin $end
$var wire 1 ) Din [31] $end
$var wire 1 * Din [30] $end
$var wire 1 + Din [29] $end
$var wire 1 , Din [28] $end
$var wire 1 - Din [27] $end
$var wire 1 . Din [26] $end
$var wire 1 / Din [25] $end
$var wire 1 0 Din [24] $end
$var wire 1 1 Din [23] $end
$var wire 1 2 Din [22] $end
$var wire 1 3 Din [21] $end
$var wire 1 4 Din [20] $end
$var wire 1 5 Din [19] $end
$var wire 1 6 Din [18] $end
$var wire 1 7 Din [17] $end
$var wire 1 8 Din [16] $end
$var wire 1 9 Din [15] $end
$var wire 1 : Din [14] $end
$var wire 1 ; Din [13] $end
$var wire 1 < Din [12] $end
$var wire 1 = Din [11] $end
$var wire 1 > Din [10] $end
$var wire 1 ? Din [9] $end
$var wire 1 @ Din [8] $end
$var wire 1 A Din [7] $end
$var wire 1 B Din [6] $end
$var wire 1 C Din [5] $end
$var wire 1 D Din [4] $end
$var wire 1 E Din [3] $end
$var wire 1 F Din [2] $end
$var wire 1 G Din [1] $end
$var wire 1 H Din [0] $end
$var reg 8 /" Dout [7:0] $end
$var reg 1 0" Done $end
$var reg 32 1" tmp [31:0] $end
$var reg 2 2" cnt [1:0] $end
$var reg 1 3" sending $end
$upscope $end

$scope module des_inst $end
$var wire 1 & clk $end
$var wire 1 ' rst_n $end
$var wire 1 ( Cin $end
$var wire 1 4" Din [7] $end
$var wire 1 5" Din [6] $end
$var wire 1 6" Din [5] $end
$var wire 1 7" Din [4] $end
$var wire 1 8" Din [3] $end
$var wire 1 9" Din [2] $end
$var wire 1 :" Din [1] $end
$var wire 1 ;" Din [0] $end
$var reg 1 <" Done $end
$var reg 32 =" Dout [31:0] $end
$var reg 32 >" tmp [31:0] $end
$var reg 2 ?" cnt [1:0] $end
$var reg 1 @" sending $end
$upscope $end
$upscope $end
$upscope $end
$enddefinitions $end
#0
$dumpvars
0!
1"
0#
bx $
bx %
bx I
bx J
xK
bx /"
x0"
bx 1"
bx 2"
x3"
bx L
bx M
bx N
bx O
bx P
bx Q
x|!
x}!
b100010011111 ~!
0!"
bx ""
x#"
x%"
x'"
x)"
x*"
b100010011111 +"
0,"
bx -"
x."
xi!
xj!
b100010011111 k!
0l!
bx m!
xn!
xp!
xr!
xt!
xu!
b100010011111 v!
0w!
bx x!
xy!
xV!
xW!
b100010011111 X!
0Y!
bx Z!
x[!
x]!
x_!
xa!
xb!
b100010011111 c!
0d!
bx e!
xf!
xC!
xD!
b100010011111 E!
0F!
bx G!
xH!
xJ!
xL!
xN!
xO!
b100010011111 P!
0Q!
bx R!
xS!
x0!
x1!
b100010011111 2!
03!
bx 4!
x5!
x7!
x9!
x;!
x<!
b100010011111 =!
0>!
bx ?!
x@!
x{
x|
b100010011111 }
0~
bx !!
x"!
x$!
x&!
x(!
x)!
b100010011111 *!
0+!
bx ,!
x-!
xh
xi
b100010011111 j
0k
bx l
xm
xo
xq
xs
xt
b100010011111 u
0v
bx w
xx
xU
xV
b100010011111 W
0X
bx Y
xZ
x\
x^
x`
xa
b100010011111 b
0c
bx d
xe
x<"
bx ="
bx >"
bx ?"
x@"
b0 z!
b1 g!
b10 T!
b11 A!
b100 .!
b101 y
b110 f
b111 S
xR
xH
xG
xF
xE
xD
xC
xB
xA
x@
x?
x>
x=
x<
x;
x:
x9
x8
x7
x6
x5
x4
x3
x2
x1
x0
x/
x.
x-
x,
x+
x*
x)
0(
1'
0&
x;"
x:"
x9"
x8"
x7"
x6"
x5"
x4"
x("
x&"
x$"
x{!
xs!
xq!
xo!
xh!
x`!
x^!
x\!
xU!
xM!
xK!
xI!
xB!
x:!
x8!
x6!
x/!
x'!
x%!
x#!
xz
xr
xp
xn
xg
x_
x]
x[
xT
$end
#10
0"
1!
0'
1&
b0 ""
b0 -"
b0 m!
b0 x!
b0 Z!
b0 e!
b0 G!
b0 R!
b0 4!
b0 ?!
b0 !!
b0 ,!
b0 l
b0 w
b0 Y
b0 d
b0 1"
b0 2"
00"
03"
1|!
0)"
1i!
0t!
1V!
0a!
1C!
0N!
10!
0;!
1{
0(!
1h
0s
1U
0`
0<"
b0 >"
b0 ?"
0@"
b0 ="
b0xxxxxxx M
b1xxxxxxx L
b0xxxxxx M
b11xxxxxx L
b0xxxxx M
b111xxxxx L
b0xxxx M
b1111xxxx L
b0xxx M
b11111xxx L
b0xx M
b111111xx L
b0x M
b1111111x L
b0 M
b11111111 L
0K
b0 /"
0R
b0 J
b0 I
0T
0g
0z
0/!
0B!
0U!
0h!
0{!
0}!
0j!
0W!
0D!
01!
0|
0i
0V
b0 %
b0xxxxxxx N
b0xxxxxx N
b0xxxxx N
b0xxxx N
b0xxx N
b0xx N
b0x N
b0 N
0$"
0o!
0\!
0I!
06!
0#!
0n
0[
1\
1o
1$!
17!
1J!
1]!
1p!
1%"
bx1 O
bx11 O
bx111 O
bx1111 O
bx11111 O
bx111111 O
bx1111111 O
b11111111 O
1]
1p
1%!
18!
1K!
1^!
1q!
1&"
0'"
0r!
0_!
0L!
09!
0&!
0q
0^
b0xxxxxxx P
b0xxxxxx P
b0xxxxx P
b0xxxx P
b0xxx P
b0xx P
b0x P
b0 P
0("
0s!
0`!
0M!
0:!
0'!
0r
0_
0a
0t
0)!
0<!
0O!
0b!
0u!
0*"
bx0 Q
bx00 Q
bx000 Q
bx0000 Q
bx00000 Q
bx000000 Q
bx0000000 Q
b0 Q
0;"
0:"
09"
08"
07"
06"
05"
04"
#20
0!
0&
0%"
1'"
0p!
1r!
0]!
1_!
0J!
1L!
07!
19!
0$!
1&!
0o
1q
0\
1^
b10000000 P
b1111111 O
b11000000 P
b111111 O
b11100000 P
b11111 O
b11110000 P
b1111 O
b11111000 P
b111 O
b11111100 P
b11 O
b11111110 P
b1 O
b11111111 P
b0 O
0&"
1("
0q!
1s!
0^!
1`!
0K!
1M!
08!
1:!
0%!
1'!
0p
1r
0]
1_
xa
0^
xt
0q
x)!
0&!
x<!
09!
xO!
0L!
xb!
0_!
xu!
0r!
x*"
0'"
b11111110 P
b0x Q
b11111100 P
b0xx Q
b11111000 P
b0xxx Q
b11110000 P
b0xxxx Q
b11100000 P
b0xxxxx Q
b11000000 P
b0xxxxxx Q
b10000000 P
b0xxxxxxx Q
b0 P
bx Q
0_
0r
0'!
0:!
0M!
0`!
0s!
0("
0*"
0u!
0b!
0O!
0<!
0)!
0t
0a
x;"
x:"
x9"
x8"
x7"
x6"
x5"
x4"
b0xxxxxxx Q
b0xxxxxx Q
b0xxxxx Q
b0xxxx Q
b0xxx Q
b0xx Q
b0x Q
b0 Q
0;"
0:"
09"
08"
07"
06"
05"
04"
#30
1"
b10101110111100011110111100110110 $
1!
1'
0H
1G
1F
0E
1D
1C
0B
0A
1@
1?
1>
1=
0<
1;
1:
19
18
07
06
05
14
13
12
11
00
1/
1.
1-
0,
1+
0*
1)
1&
1%"
1'"
1p!
1r!
1]!
1_!
1J!
1L!
17!
19!
1$!
1&!
1o
1q
1\
1^
b10000000 P
b10000000 O
b11000000 P
b11000000 O
b11100000 P
b11100000 O
b11110000 P
b11110000 O
b11111000 P
b11111000 O
b11111100 P
b11111100 O
b11111110 P
b11111110 O
b11111111 P
b11111111 O
1&"
1("
1q!
1s!
1^!
1`!
1K!
1M!
18!
1:!
1%!
1'!
1p
1r
1]
1_
xa
0^
xt
0q
x)!
0&!
x<!
09!
xO!
0L!
xb!
0_!
xu!
0r!
x*"
0'"
b11111110 P
b0x Q
b11111100 P
b0xx Q
b11111000 P
b0xxx Q
b11110000 P
b0xxxx Q
b11100000 P
b0xxxxx Q
b11000000 P
b0xxxxxx Q
b10000000 P
b0xxxxxxx Q
b0 P
bx Q
0_
0r
0'!
0:!
0M!
0`!
0s!
0("
0*"
0u!
0b!
0O!
0<!
0)!
0t
0a
x;"
x:"
x9"
x8"
x7"
x6"
x5"
x4"
b0xxxxxxx Q
b0xxxxxx Q
b0xxxxx Q
b0xxxx Q
b0xxx Q
b0xx Q
b0x Q
b0 Q
0;"
0:"
09"
08"
07"
06"
05"
04"
#40
1#
0!
1(
0&
0%"
1'"
0p!
1r!
0]!
1_!
0J!
1L!
07!
19!
0$!
1&!
0o
1q
0\
1^
b10000000 P
b1111111 O
b11000000 P
b111111 O
b11100000 P
b11111 O
b11110000 P
b1111 O
b11111000 P
b111 O
b11111100 P
b11 O
b11111110 P
b1 O
b11111111 P
b0 O
0&"
1("
0q!
1s!
0^!
1`!
0K!
1M!
08!
1:!
0%!
1'!
0p
1r
0]
1_
xa
0^
xt
0q
x)!
0&!
x<!
09!
xO!
0L!
xb!
0_!
xu!
0r!
x*"
0'"
b11111110 P
b0x Q
b11111100 P
b0xx Q
b11111000 P
b0xxx Q
b11110000 P
b0xxxx Q
b11100000 P
b0xxxxx Q
b11000000 P
b0xxxxxx Q
b10000000 P
b0xxxxxxx Q
b0 P
bx Q
0_
0r
0'!
0:!
0M!
0`!
0s!
0("
0*"
0u!
0b!
0O!
0<!
0)!
0t
0a
x;"
x:"
x9"
x8"
x7"
x6"
x5"
x4"
b0xxxxxxx Q
b0xxxxxx Q
b0xxxxx Q
b0xxxx Q
b0xxx Q
b0xx Q
b0x Q
b0 Q
0;"
0:"
09"
08"
07"
06"
05"
04"
#50
1!
1&
1%"
1'"
1p!
1r!
1]!
1_!
1J!
1L!
17!
19!
1$!
1&!
1o
1q
1\
1^
b10000000 P
b10000000 O
b11000000 P
b11000000 O
b11100000 P
b11100000 O
b11110000 P
b11110000 O
b11111000 P
b11111000 O
b11111100 P
b11111100 O
b11111110 P
b11111110 O
b11111111 P
b11111111 O
1&"
1("
1q!
1s!
1^!
1`!
1K!
1M!
18!
1:!
1%!
1'!
1p
1r
1]
1_
xa
0^
xt
0q
x)!
0&!
x<!
09!
xO!
0L!
xb!
0_!
xu!
0r!
x*"
0'"
b11111110 P
b0x Q
b11111100 P
b0xx Q
b11111000 P
b0xxx Q
b11110000 P
b0xxxx Q
b11100000 P
b0xxxxx Q
b11000000 P
b0xxxxxx Q
b10000000 P
b0xxxxxxx Q
b0 P
bx Q
0_
0r
0'!
0:!
0M!
0`!
0s!
0("
0*"
0u!
0b!
0O!
0<!
0)!
0t
0a
x;"
x:"
x9"
x8"
x7"
x6"
x5"
x4"
b0xxxxxxx Q
b0xxxxxx Q
b0xxxxx Q
b0xxxx Q
b0xxx Q
b0xx Q
b0x Q
b0 Q
0;"
0:"
09"
08"
07"
06"
05"
04"
b10101110111100011110111100110110 1"
13"
1#"
0|!
1."
1n!
0i!
1y!
1[!
0V!
1f!
1H!
0C!
1S!
15!
00!
1@!
1"!
0{
1-!
1m
0h
1x
1Z
0U
1e
1@"
b1111111 L
b111111 L
b11111 L
b1111 L
b111 L
b11 L
b1 L
b0 L
b10101110 /"
b10101110 J
1T
1z
1B!
1U!
1h!
1j!
1W!
1D!
1|
1V
b10000000 N
b10100000 N
b10101000 N
b10101100 N
b10101110 N
1o!
1\!
1I!
1#!
1[
0\
0$!
0J!
0]!
0p!
b11111101 O
b11111001 O
b11110001 O
b11010001 O
b1010001 O
0]
0%!
0K!
0^!
0q!
1r!
1_!
1L!
1&!
1^
b10000000 P
b10100000 P
b10101000 P
b10101100 P
b10101110 P
1s!
1`!
1M!
1'!
1_
1a
1)!
1O!
1b!
1u!
b10 Q
b110 Q
b1110 Q
b101110 Q
b10101110 Q
1:"
19"
18"
16"
14"
#60
0#
0!
0(
0&
0%"
1'"
1p!
0r!
1]!
0_!
1J!
0L!
07!
19!
1$!
0&!
0o
1q
1\
0^
b101110 P
b11010001 O
b1101110 P
b10010001 O
b1001110 P
b10110001 O
b1011110 P
b10100001 O
b1010110 P
b10101001 O
b1010010 P
b10101101 O
b1010000 P
b10101111 O
b1010001 P
b10101110 O
0&"
1("
1q!
0s!
1^!
0`!
1K!
0M!
08!
1:!
1%!
0'!
0p
1r
1]
0_
0a
1^
1t
0q
0)!
1&!
1<!
09!
0O!
1L!
0b!
1_!
0u!
1r!
1*"
0'"
b1010000 P
b10101111 Q
b1010010 P
b10101101 Q
b1010110 P
b10101001 Q
b1011110 P
b10100001 Q
b1001110 P
b10110001 Q
b1101110 P
b10010001 Q
b101110 P
b11010001 Q
b10101110 P
b1010001 Q
1_
0r
1'!
0:!
1M!
1`!
1s!
0("
0*"
1u!
1b!
1O!
0<!
1)!
0t
1a
1;"
0:"
09"
08"
17"
06"
15"
04"
b11010001 Q
b10010001 Q
b10110001 Q
b10100001 Q
b10101001 Q
b10101101 Q
b10101111 Q
b10101110 Q
0;"
1:"
19"
18"
07"
16"
05"
14"
#70
1!
1&
1%"
1'"
0p!
0r!
0]!
0_!
0J!
0L!
17!
19!
0$!
0&!
1o
1q
0\
0^
b101110 P
b101110 O
b1101110 P
b1101110 O
b1001110 P
b1001110 O
b1011110 P
b1011110 O
b1010110 P
b1010110 O
b1010010 P
b1010010 O
b1010000 P
b1010000 O
b1010001 P
b1010001 O
1&"
1("
0q!
0s!
0^!
0`!
0K!
0M!
18!
1:!
0%!
0'!
1p
1r
0]
0_
0a
1^
1t
0q
0)!
1&!
1<!
09!
0O!
1L!
0b!
1_!
0u!
1r!
1*"
0'"
b1010000 P
b10101111 Q
b1010010 P
b10101101 Q
b1010110 P
b10101001 Q
b1011110 P
b10100001 Q
b1001110 P
b10110001 Q
b1101110 P
b10010001 Q
b101110 P
b11010001 Q
b10101110 P
b1010001 Q
1_
0r
1'!
0:!
1M!
1`!
1s!
0("
0*"
1u!
1b!
1O!
0<!
1)!
0t
1a
1;"
0:"
09"
08"
17"
06"
15"
04"
b11010001 Q
b10010001 Q
b10110001 Q
b10100001 Q
b10101001 Q
b10101101 Q
b10101111 Q
b10101110 Q
0;"
1:"
19"
18"
07"
16"
05"
14"
b10001001111 b
b1 d
1U
b10001001111 W
b1 Y
b10001001111 u
b1 w
1h
b10001001111 j
b1 l
b10001001111 *!
b1 ,!
1{
b10001001111 }
b1 !!
b10001001111 =!
b1 ?!
10!
b10001001111 2!
b1 4!
b10001001111 P!
b1 R!
1C!
b10001001111 E!
b1 G!
b10001001111 c!
b1 e!
1V!
b10001001111 X!
b1 Z!
b10001001111 v!
b1 x!
1i!
b10001001111 k!
b1 m!
b10001001111 +"
b1 -"
1|!
b10001001111 ~!
b1 ""
b11110001111011110011011000000000 1"
b1 2"
b10101110 >"
b1 ?"
b11110001 /"
b1 L
b11 L
b111 L
b1111 L
b11111 L
b111111 L
b1111111 L
b11111111 L
b11110001 J
1g
1/!
0B!
0U!
0h!
1{!
1}!
0j!
0W!
0D!
11!
1i
b11101110 N
b11111110 N
b11110110 N
b11110010 N
b11110000 N
b11110001 N
1$"
0o!
0\!
0I!
16!
1n
0o
07!
1J!
1]!
1p!
0%"
b1010000 O
b1010010 O
b1010110 O
b1011110 O
b1001110 O
b1110 O
0p
08!
1K!
1^!
1q!
0&"
1'"
0r!
0_!
0L!
19!
1q
b11101110 P
b11111110 P
b11110110 P
b11110010 P
b11110000 P
b11110001 P
1("
0s!
0`!
0M!
1:!
1r
1t
1<!
0O!
0b!
0u!
1*"
b10101111 Q
b10101101 Q
b10101001 Q
b10100001 Q
b10110001 Q
b11110001 Q
1;"
0:"
09"
08"
17"
15"
#80
0!
0&
1%"
0'"
0p!
1r!
0]!
1_!
0J!
1L!
17!
09!
1$!
0&!
1o
0q
1\
0^
b1110001 P
b10001110 O
b110001 P
b11001110 O
b10001 P
b11101110 O
b1 P
b11111110 O
b1001 P
b11110110 O
b1101 P
b11110010 O
b1111 P
b11110000 O
b1110 P
b11110001 O
1&"
0("
0q!
1s!
0^!
1`!
0K!
1M!
18!
0:!
1%!
0'!
1p
0r
1]
0_
0a
1^
0t
1q
0)!
1&!
0<!
19!
1O!
0L!
1b!
0_!
1u!
0r!
0*"
1'"
b1111 P
b11110000 Q
b1101 P
b11110010 Q
b1001 P
b11110110 Q
b1 P
b11111110 Q
b10001 P
b11101110 Q
b110001 P
b11001110 Q
b1110001 P
b10001110 Q
b11110001 P
b1110 Q
1_
1r
1'!
1:!
0M!
0`!
0s!
1("
1*"
0u!
0b!
0O!
1<!
1)!
1t
1a
0;"
1:"
19"
18"
07"
06"
05"
04"
b10001110 Q
b11001110 Q
b11101110 Q
b11111110 Q
b11110110 Q
b11110010 Q
b11110000 Q
b11110001 Q
1;"
0:"
09"
08"
17"
16"
15"
14"
#90
1!
1&
0%"
0'"
1p!
1r!
1]!
1_!
1J!
1L!
07!
09!
0$!
0&!
0o
0q
0\
0^
b1110001 P
b1110001 O
b110001 P
b110001 O
b10001 P
b10001 O
b1 P
b1 O
b1001 P
b1001 O
b1101 P
b1101 O
b1111 P
b1111 O
b1110 P
b1110 O
0&"
0("
1q!
1s!
1^!
1`!
1K!
1M!
08!
0:!
0%!
0'!
0p
0r
0]
0_
0a
1^
0t
1q
0)!
1&!
0<!
19!
1O!
0L!
1b!
0_!
1u!
0r!
0*"
1'"
b1111 P
b11110000 Q
b1101 P
b11110010 Q
b1001 P
b11110110 Q
b1 P
b11111110 Q
b10001 P
b11101110 Q
b110001 P
b11001110 Q
b1110001 P
b10001110 Q
b11110001 P
b1110 Q
1_
1r
1'!
1:!
0M!
0`!
0s!
1("
1*"
0u!
0b!
0O!
1<!
1)!
1t
1a
0;"
1:"
19"
18"
07"
06"
05"
04"
b10001110 Q
b11001110 Q
b11101110 Q
b11111110 Q
b11110110 Q
b11110010 Q
b11110000 Q
b11110001 Q
1;"
0:"
09"
08"
17"
16"
15"
14"
b11101111001101100000000000000000 1"
b10 2"
1!"
b1000100111 ~!
b10 ""
1,"
b1000100111 +"
b10 -"
1l!
b1000100111 k!
b10 m!
1w!
b1000100111 v!
b10 x!
1Y!
b1000100111 X!
b10 Z!
1d!
b1000100111 c!
b10 e!
1F!
b1000100111 E!
b10 G!
1Q!
b1000100111 P!
b10 R!
13!
b1000100111 2!
b10 4!
1>!
b1000100111 =!
b10 ?!
1~
b1000100111 }
b10 !!
1+!
b1000100111 *!
b10 ,!
1k
b1000100111 j
b10 l
1v
b1000100111 u
b10 w
1X
b1000100111 W
b10 Y
1c
b1000100111 b
b10 d
b1010111000000000 >"
b1010111011110001 >"
b10 ?"
0a
0V
0t
0i
0)!
0|
0<!
01!
1O!
1D!
1b!
1W!
1u!
1j!
0*"
0}!
b11101111 /"
b11101111 J
b11110000 N
b11110000 Q
b11110010 N
b11110010 Q
b11110110 N
b11110110 Q
b11111110 N
b11111110 Q
b11101110 N
b11101110 Q
b11001110 N
b11001110 Q
b10001110 N
b10001110 Q
b1110 N
b1110 Q
0[
0n
0#!
06!
1I!
1\!
1o!
0$"
0/!
1B!
1U!
1h!
0j!
0W!
0D!
11!
1%"
0p!
0]!
0J!
17!
1$!
1o
1\
0;"
1:"
19"
18"
07"
06"
05"
04"
b10001110 O
b11001110 O
b11101110 O
b11111110 O
b11110110 O
b11110010 O
b11110000 O
b11110001 O
b11110 N
b10110 N
b10010 N
b10000 N
0o!
0\!
0I!
16!
1&"
0q!
0^!
0K!
18!
1%!
1p
1]
0^
0q
0&!
09!
1L!
1_!
1r!
0'"
07!
1J!
1]!
1p!
b11110011 O
b11110111 O
b11111111 O
b11101111 O
b11110000 P
b11110010 P
b11110110 P
b11111110 P
b11101110 P
b11001110 P
b10001110 P
b1110 P
0_
0r
0'!
0:!
1M!
1`!
1s!
0("
08!
1K!
1^!
1q!
0r!
0_!
0L!
19!
1*"
0u!
0b!
0O!
1<!
1)!
1t
1a
b10001110 Q
b11001110 Q
b11101110 Q
b11111110 Q
b11110110 Q
b11110010 Q
b11110000 Q
b11110001 Q
b11110 P
b10110 P
b10010 P
b10000 P
0s!
0`!
0M!
1:!
0<!
1O!
1b!
1u!
1;"
0:"
09"
08"
17"
16"
15"
14"
b11110011 Q
b11110111 Q
b11111111 Q
b11101111 Q
1:"
19"
18"
07"
