sim/scripts/tx_top.vcd
$date
	Fri May 09 23:54:21 2025
$end
$version
	ModelSim Version 2020.4
$end
$timescale
	1ns
$end

$scope module tb_tx_top $end
$var reg 1 ! clk $end
$var reg 1 " rst_n $end
$var reg 1 # start $end
$var reg 26 $ Din [25:0] $end
$var reg 1 % Dout $end

$scope module tx_top_dut $end
$var wire 1 & clk $end
$var wire 1 ' rst_n $end
$var wire 1 ( start $end
$var wire 1 ) Din [25] $end
$var wire 1 * Din [24] $end
$var wire 1 + Din [23] $end
$var wire 1 , Din [22] $end
$var wire 1 - Din [21] $end
$var wire 1 . Din [20] $end
$var wire 1 / Din [19] $end
$var wire 1 0 Din [18] $end
$var wire 1 1 Din [17] $end
$var wire 1 2 Din [16] $end
$var wire 1 3 Din [15] $end
$var wire 1 4 Din [14] $end
$var wire 1 5 Din [13] $end
$var wire 1 6 Din [12] $end
$var wire 1 7 Din [11] $end
$var wire 1 8 Din [10] $end
$var wire 1 9 Din [9] $end
$var wire 1 : Din [8] $end
$var wire 1 ; Din [7] $end
$var wire 1 < Din [6] $end
$var wire 1 = Din [5] $end
$var wire 1 > Din [4] $end
$var wire 1 ? Din [3] $end
$var wire 1 @ Din [2] $end
$var wire 1 A Din [1] $end
$var wire 1 B Din [0] $end
$var reg 1 C Dout $end
$var reg 32 D enc_data [31:0] $end
$var reg 1 E s_hamming $end
$var reg 1 F out_scr $end
$var reg 32 G scr_data [31:0] $end
$var reg 1 H scr_done $end
$var reg 32 I Dout_serdes [31:0] $end
$var reg 1 J Done_serdes $end
$var reg 1 K out_serdes $end

$scope module ecc_inst $end
$var parameter 32 L K $end
$var parameter 32 M P0_LSB $end
$var parameter 32 N m $end
$var parameter 32 O n $end
$var wire 1 ) d_i [25] $end
$var wire 1 * d_i [24] $end
$var wire 1 + d_i [23] $end
$var wire 1 , d_i [22] $end
$var wire 1 - d_i [21] $end
$var wire 1 . d_i [20] $end
$var wire 1 / d_i [19] $end
$var wire 1 0 d_i [18] $end
$var wire 1 1 d_i [17] $end
$var wire 1 2 d_i [16] $end
$var wire 1 3 d_i [15] $end
$var wire 1 4 d_i [14] $end
$var wire 1 5 d_i [13] $end
$var wire 1 6 d_i [12] $end
$var wire 1 7 d_i [11] $end
$var wire 1 8 d_i [10] $end
$var wire 1 9 d_i [9] $end
$var wire 1 : d_i [8] $end
$var wire 1 ; d_i [7] $end
$var wire 1 < d_i [6] $end
$var wire 1 = d_i [5] $end
$var wire 1 > d_i [4] $end
$var wire 1 ? d_i [3] $end
$var wire 1 @ d_i [2] $end
$var wire 1 A d_i [1] $end
$var wire 1 B d_i [0] $end
$var wire 1 P q_o [31] $end
$var wire 1 Q q_o [30] $end
$var wire 1 R q_o [29] $end
$var wire 1 S q_o [28] $end
$var wire 1 T q_o [27] $end
$var wire 1 U q_o [26] $end
$var wire 1 V q_o [25] $end
$var wire 1 W q_o [24] $end
$var wire 1 X q_o [23] $end
$var wire 1 Y q_o [22] $end
$var wire 1 Z q_o [21] $end
$var wire 1 [ q_o [20] $end
$var wire 1 \ q_o [19] $end
$var wire 1 ] q_o [18] $end
$var wire 1 ^ q_o [17] $end
$var wire 1 _ q_o [16] $end
$var wire 1 ` q_o [15] $end
$var wire 1 a q_o [14] $end
$var wire 1 b q_o [13] $end
$var wire 1 c q_o [12] $end
$var wire 1 d q_o [11] $end
$var wire 1 e q_o [10] $end
$var wire 1 f q_o [9] $end
$var wire 1 g q_o [8] $end
$var wire 1 h q_o [7] $end
$var wire 1 i q_o [6] $end
$var wire 1 j q_o [5] $end
$var wire 1 k q_o [4] $end
$var wire 1 l q_o [3] $end
$var wire 1 m q_o [2] $end
$var wire 1 n q_o [1] $end
$var wire 1 o q_o [0] $end
$var wire 1 p p_o [5] $end
$var wire 1 q p_o [4] $end
$var wire 1 r p_o [3] $end
$var wire 1 s p_o [2] $end
$var wire 1 t p_o [1] $end
$var wire 1 u p0_o $end
$var reg 31 v cw_w_dbits [31:1] $end
$var reg 31 w cw [31:1] $end

$scope function calculate_m $end
$var integer 32 x calculate_m $end
$var integer 32 y k $end
$var integer 32 z m $end
$upscope $end

$scope function store_dbits_in_codeword $end
$var reg 31 { store_dbits_in_codeword [31:1] $end
$var reg 26 | d [25:0] $end
$var integer 32 } bit_idx $end
$var integer 32 ~ cw_idx $end
$upscope $end

$scope function calculate_p $end
$var reg 5 !! calculate_p [5:1] $end
$var reg 31 "! cw [31:1] $end
$var integer 32 #! p_idx $end
$var integer 32 $! cw_idx $end
$upscope $end

$scope function store_p_in_codeword $end
$var reg 31 %! store_p_in_codeword [31:1] $end
$var reg 31 &! cw [31:1] $end
$var reg 5 '! p [5:1] $end
$var integer 32 (! i $end
$upscope $end
$upscope $end

$scope module pts_reg_inst_1 $end
$var wire 1 & clk $end
$var wire 1 )! rst_n $end
$var wire 1 ( start $end
$var wire 1 *! data [31] $end
$var wire 1 +! data [30] $end
$var wire 1 ,! data [29] $end
$var wire 1 -! data [28] $end
$var wire 1 .! data [27] $end
$var wire 1 /! data [26] $end
$var wire 1 0! data [25] $end
$var wire 1 1! data [24] $end
$var wire 1 2! data [23] $end
$var wire 1 3! data [22] $end
$var wire 1 4! data [21] $end
$var wire 1 5! data [20] $end
$var wire 1 6! data [19] $end
$var wire 1 7! data [18] $end
$var wire 1 8! data [17] $end
$var wire 1 9! data [16] $end
$var wire 1 :! data [15] $end
$var wire 1 ;! data [14] $end
$var wire 1 <! data [13] $end
$var wire 1 =! data [12] $end
$var wire 1 >! data [11] $end
$var wire 1 ?! data [10] $end
$var wire 1 @! data [9] $end
$var wire 1 A! data [8] $end
$var wire 1 B! data [7] $end
$var wire 1 C! data [6] $end
$var wire 1 D! data [5] $end
$var wire 1 E! data [4] $end
$var wire 1 F! data [3] $end
$var wire 1 G! data [2] $end
$var wire 1 H! data [1] $end
$var wire 1 I! data [0] $end
$var reg 1 J! out $end
$var reg 1 K! done $end
$var reg 32 L! shift_reg [31:0] $end
$var reg 5 M! shift_cnt [4:0] $end
$var reg 1 N! shifting $end
$upscope $end

$scope module scr_inst $end
$var wire 1 & clk $end
$var wire 1 O! rst_n $end
$var wire 1 P! start $end
$var wire 1 Q! in $end
$var reg 1 R! out $end
$var reg 12 S! shift_reg [0:11] $end
$var reg 1 T! tmp_xor $end
$upscope $end

$scope module stp_reg_inst $end
$var wire 1 & clk $end
$var wire 1 U! rst_n $end
$var wire 1 V! start $end
$var reg 32 W! data [31:0] $end
$var wire 1 X! in $end
$var reg 1 Y! done $end
$var reg 32 Z! shift_reg [31:0] $end
$var reg 5 [! shift_cnt [4:0] $end
$upscope $end

$scope module serdes_dut $end
$var wire 1 & clk $end
$var wire 1 ' rst_n $end
$var wire 1 \! Cin $end
$var wire 1 ]! Din [31] $end
$var wire 1 ^! Din [30] $end
$var wire 1 _! Din [29] $end
$var wire 1 `! Din [28] $end
$var wire 1 a! Din [27] $end
$var wire 1 b! Din [26] $end
$var wire 1 c! Din [25] $end
$var wire 1 d! Din [24] $end
$var wire 1 e! Din [23] $end
$var wire 1 f! Din [22] $end
$var wire 1 g! Din [21] $end
$var wire 1 h! Din [20] $end
$var wire 1 i! Din [19] $end
$var wire 1 j! Din [18] $end
$var wire 1 k! Din [17] $end
$var wire 1 l! Din [16] $end
$var wire 1 m! Din [15] $end
$var wire 1 n! Din [14] $end
$var wire 1 o! Din [13] $end
$var wire 1 p! Din [12] $end
$var wire 1 q! Din [11] $end
$var wire 1 r! Din [10] $end
$var wire 1 s! Din [9] $end
$var wire 1 t! Din [8] $end
$var wire 1 u! Din [7] $end
$var wire 1 v! Din [6] $end
$var wire 1 w! Din [5] $end
$var wire 1 x! Din [4] $end
$var wire 1 y! Din [3] $end
$var wire 1 z! Din [2] $end
$var wire 1 {! Din [1] $end
$var wire 1 |! Din [0] $end
$var reg 32 }! Dout [31:0] $end
$var reg 1 ~! Done $end
$var reg 8 !" Dout_ser [7:0] $end
$var reg 1 "" Done_ser $end

$scope module serializer_inst $end
$var wire 1 & clk $end
$var wire 1 ' rst_n $end
$var wire 1 \! Cin $end
$var wire 1 ]! Din [31] $end
$var wire 1 ^! Din [30] $end
$var wire 1 _! Din [29] $end
$var wire 1 `! Din [28] $end
$var wire 1 a! Din [27] $end
$var wire 1 b! Din [26] $end
$var wire 1 c! Din [25] $end
$var wire 1 d! Din [24] $end
$var wire 1 e! Din [23] $end
$var wire 1 f! Din [22] $end
$var wire 1 g! Din [21] $end
$var wire 1 h! Din [20] $end
$var wire 1 i! Din [19] $end
$var wire 1 j! Din [18] $end
$var wire 1 k! Din [17] $end
$var wire 1 l! Din [16] $end
$var wire 1 m! Din [15] $end
$var wire 1 n! Din [14] $end
$var wire 1 o! Din [13] $end
$var wire 1 p! Din [12] $end
$var wire 1 q! Din [11] $end
$var wire 1 r! Din [10] $end
$var wire 1 s! Din [9] $end
$var wire 1 t! Din [8] $end
$var wire 1 u! Din [7] $end
$var wire 1 v! Din [6] $end
$var wire 1 w! Din [5] $end
$var wire 1 x! Din [4] $end
$var wire 1 y! Din [3] $end
$var wire 1 z! Din [2] $end
$var wire 1 {! Din [1] $end
$var wire 1 |! Din [0] $end
$var reg 8 #" Dout [7:0] $end
$var reg 1 $" Done $end
$var reg 32 %" tmp [31:0] $end
$var reg 2 &" cnt [1:0] $end
$var reg 1 '" sending $end
$upscope $end

$scope module deserializer_inst $end
$var wire 1 & clk $end
$var wire 1 ' rst_n $end
$var wire 1 \! Cin $end
$var wire 1 (" Din [7] $end
$var wire 1 )" Din [6] $end
$var wire 1 *" Din [5] $end
$var wire 1 +" Din [4] $end
$var wire 1 ," Din [3] $end
$var wire 1 -" Din [2] $end
$var wire 1 ." Din [1] $end
$var wire 1 /" Din [0] $end
$var reg 1 0" Done $end
$var reg 32 1" Dout [31:0] $end
$var reg 32 2" tmp [31:0] $end
$var reg 2 3" cnt [1:0] $end
$var reg 1 4" sending $end
$upscope $end
$upscope $end

$scope module pts_reg_inst_2 $end
$var wire 1 & clk $end
$var wire 1 5" rst_n $end
$var wire 1 6" start $end
$var wire 1 7" data [31] $end
$var wire 1 8" data [30] $end
$var wire 1 9" data [29] $end
$var wire 1 :" data [28] $end
$var wire 1 ;" data [27] $end
$var wire 1 <" data [26] $end
$var wire 1 =" data [25] $end
$var wire 1 >" data [24] $end
$var wire 1 ?" data [23] $end
$var wire 1 @" data [22] $end
$var wire 1 A" data [21] $end
$var wire 1 B" data [20] $end
$var wire 1 C" data [19] $end
$var wire 1 D" data [18] $end
$var wire 1 E" data [17] $end
$var wire 1 F" data [16] $end
$var wire 1 G" data [15] $end
$var wire 1 H" data [14] $end
$var wire 1 I" data [13] $end
$var wire 1 J" data [12] $end
$var wire 1 K" data [11] $end
$var wire 1 L" data [10] $end
$var wire 1 M" data [9] $end
$var wire 1 N" data [8] $end
$var wire 1 O" data [7] $end
$var wire 1 P" data [6] $end
$var wire 1 Q" data [5] $end
$var wire 1 R" data [4] $end
$var wire 1 S" data [3] $end
$var wire 1 T" data [2] $end
$var wire 1 U" data [1] $end
$var wire 1 V" data [0] $end
$var reg 1 W" out $end
$var reg 1 X" done $end
$var reg 32 Y" shift_reg [31:0] $end
$var reg 5 Z" shift_cnt [4:0] $end
$var reg 1 [" shifting $end
$upscope $end

$scope module me_inst $end
$var wire 1 \" data_in $end
$var wire 1 & clk $end
$var reg 1 ]" data_out $end
$upscope $end
$upscope $end
$upscope $end
$enddefinitions $end
#0
$dumpvars
0!
x"
0#
b111100010001000101111110 $
x%
xC
b111100010001000010111011110011 D
xE
xF
bx G
xH
bx I
xJ
xK
b11110001000100001011101110000 {
b111100010001000101111110 |
b101 !!
b11110001000100001011101110000 "!
b11110001000100001011101111001 %!
b11110001000100001011101110000 &!
b101 '!
b11110001000100001011101110000 v
b11110001000100001011101111001 w
xJ!
xK!
bx L!
bx M!
0N!
xR!
b100010011111 S!
0T!
bx W!
xY!
bx Z!
b0 [!
bx }!
x~!
bx !"
x""
bx #"
x$"
bx %"
bx &"
x'"
x0"
bx 1"
bx 2"
bx 3"
x4"
xW"
xX"
bx Y"
bx Z"
0["
x]"
b11010 L
b1 M
b101 N
b11111 O
bx x
bx y
bx z
b11010 }
b100000 ~
b110 #!
b100000 $!
b110 (!
0B
1A
1@
1?
1>
1=
1<
0;
1:
09
08
07
16
05
04
03
12
01
00
0/
1.
1-
1,
1+
0*
0)
0(
x'
0&
x\"
xV"
xU"
xT"
xS"
xR"
xQ"
xP"
xO"
xN"
xM"
xL"
xK"
xJ"
xI"
xH"
xG"
xF"
xE"
xD"
xC"
xB"
xA"
x@"
x?"
x>"
x="
x<"
x;"
x:"
x9"
x8"
x7"
x6"
x|!
x{!
xz!
xy!
xx!
xw!
xv!
xu!
xt!
xs!
xr!
xq!
xp!
xo!
xn!
xm!
xl!
xk!
xj!
xi!
xh!
xg!
xf!
xe!
xd!
xc!
xb!
xa!
x`!
x_!
x^!
x]!
x\!
xX!
xQ!
1I!
1H!
0G!
0F!
1E!
1D!
1C!
1B!
0A!
1@!
1?!
1>!
0=!
1<!
0;!
0:!
09!
08!
17!
06!
05!
04!
13!
02!
01!
00!
1/!
1.!
1-!
1,!
0+!
0*!
1o
1n
0m
0l
1k
1j
1i
1h
0g
1f
1e
1d
0c
1b
0a
0`
0_
0^
1]
0\
0[
0Z
1Y
0X
0W
0V
1U
1T
1S
1R
0Q
0P
1t
0s
1r
0q
0p
1u
z)!
zO!
zP!
zU!
zV!
x/"
x."
x-"
x,"
x+"
x*"
x)"
x("
z5"
$end
#10
1#
1!
1(
1&
0K!
0X"
bx0 Z!
b1 [!
b111100010001000010111011110011 L!
b0 M!
1N!
b10001001111 S!
0J!
0E
0Q!
0R!
0F
0X!
#20
0!
0&
#30
0#
1!
0(
1&
bx00 Z!
b10 [!
1Y!
1T!
b1000100111 S!
b1111000100010000101110111100110 L!
b1 M!
1R!
1H
1F
1\!
1X!
#40
0!
0&
#50
1!
1&
0$"
00"
0~!
0""
0J
06"
bx01 Z!
bx000 Z!
b11 [!
b0 &"
1'"
b0 3"
14"
b11110001000100001011101111001100 L!
b10 M!
b100010011 S!
b100100010011 S!
1J!
b0 1"
b0 }!
1E
b0 I
1Q!
0R!
0V"
0U"
0T"
0S"
0R"
0Q"
0P"
0O"
0N"
0M"
0L"
0K"
0J"
0I"
0H"
0G"
0F"
0E"
0D"
0C"
0B"
0A"
0@"
0?"
0>"
0="
0<"
0;"
0:"
09"
08"
07"
0F
0X!
#60
0!
0&
#70
1!
1&
bx0000 Z!
b100 [!
b10010001001 S!
b110010001001 S!
b11100010001000010111011110011000 L!
b11 M!
#80
0!
0&
#90
1!
1&
bx00000 Z!
b101 [!
b11000100010000101110111100110000 L!
b100 M!
b11001000100 S!
b111001000100 S!
#100
0!
0&
#110
1!
1&
bx000000 Z!
b110 [!
b11100100010 S!
b111100100010 S!
b10001000100001011101111001100000 L!
b101 M!
#120
0!
0&
#130
1!
1&
bx0000000 Z!
b111 [!
b10001000010111011110011000000 L!
b110 M!
b11110010001 S!
b111110010001 S!
0J!
0E
0Q!
1R!
1F
1X!
#140
0!
0&
#150
1!
1&
bx0000001 Z!
bx00000000 Z!
b1000 [!
0T!
b11111001000 S!
b111111001000 S!
b100010000101110111100110000000 L!
b111 M!
0R!
0F
0X!
#160
0!
0&
#170
1!
1&
bx000000000 Z!
b1001 [!
b1000100001011101111001100000000 L!
b1000 M!
b11111100100 S!
#180
0!
0&
#190
1!
1&
bx0000000000 Z!
b1010 [!
1T!
b1111110010 S!
b10001000010111011110011000000000 L!
b1001 M!
1J!
1R!
1F
1E
1X!
1Q!
0R!
0F
0X!
#200
0!
0&
#210
1!
1&
bx00000000000 Z!
b1011 [!
b10000101110111100110000000000 L!
b1010 M!
0T!
b111111001 S!
b100111111001 S!
1R!
0J!
0E
1F
0Q!
1X!
0R!
0F
0X!
#220
0!
0&
#230
1!
1&
bx000000000000 Z!
b1100 [!
b10011111100 S!
b100001011101111001100000000000 L!
b1011 M!
#240
0!
0&
#250
1!
1&
bx0000000000000 Z!
b1101 [!
b1000010111011110011000000000000 L!
b1100 M!
b1001111110 S!
#260
0!
0&
#270
1!
1&
bx00000000000000 Z!
b1110 [!
1T!
b100111111 S!
b10000101110111100110000000000000 L!
b1101 M!
1J!
1R!
1F
1E
1X!
1Q!
0R!
0F
0X!
#280
0!
0&
#290
1!
1&
bx000000000000000 Z!
b1111 [!
b1011101111001100000000000000 L!
b1110 M!
0T!
b10011111 S!
b100010011111 S!
1R!
0J!
0E
1F
0Q!
1X!
0R!
0F
0X!
#300
0!
0&
#310
1!
1&
bx0000000000000000 Z!
b10000 [!
b10001001111 S!
b10111011110011000000000000000 L!
b1111 M!
#320
0!
0&
#330
1!
1&
bx00000000000000000 Z!
b10001 [!
b101110111100110000000000000000 L!
b10000 M!
1T!
b1000100111 S!
1R!
1F
1X!
#340
0!
0&
#350
1!
1&
bx00000000000000001 Z!
bx000000000000000000 Z!
b10010 [!
b100010011 S!
b100100010011 S!
b1011101111001100000000000000000 L!
b10001 M!
#360
0!
0&
#370
1!
1&
bx000000000000000001 Z!
bx0000000000000000000 Z!
b10011 [!
b10111011110011000000000000000000 L!
b10010 M!
b10010001001 S!
b110010001001 S!
1J!
1E
1Q!
0R!
0F
0X!
#380
0!
0&
#390
1!
1&
bx00000000000000000000 Z!
b10100 [!
b11001000100 S!
b111001000100 S!
b1110111100110000000000000000000 L!
b10011 M!
0J!
0E
0Q!
1R!
1F
1X!
#400
0!
0&
#410
1!
1&
bx00000000000000000001 Z!
bx000000000000000000000 Z!
b10101 [!
b11101111001100000000000000000000 L!
b10100 M!
b11100100010 S!
b111100100010 S!
1J!
1E
1Q!
0R!
0F
0X!
#420
0!
0&
#430
1!
1&
bx0000000000000000000000 Z!
b10110 [!
b11110010001 S!
b111110010001 S!
b11011110011000000000000000000000 L!
b10101 M!
#440
0!
0&
#450
1!
1&
bx00000000000000000000000 Z!
b10111 [!
b10111100110000000000000000000000 L!
b10110 M!
0T!
b11111001000 S!
b111111001000 S!
1R!
1F
1X!
#460
0!
0&
#470
1!
1&
bx00000000000000000000001 Z!
bx000000000000000000000000 Z!
b11000 [!
b11111100100 S!
b1111001100000000000000000000000 L!
b10111 M!
0J!
0E
0Q!
0R!
0F
0X!
#480
0!
0&
#490
1!
1&
bx0000000000000000000000000 Z!
b11001 [!
b11110011000000000000000000000000 L!
b11000 M!
1T!
b1111110010 S!
1R!
1J!
1E
1F
1Q!
1X!
0R!
0F
0X!
#500
0!
0&
#510
1!
1&
bx00000000000000000000000000 Z!
b11010 [!
0T!
b111111001 S!
b100111111001 S!
b11100110000000000000000000000000 L!
b11001 M!
1R!
1F
1X!
#520
0!
0&
#530
1!
1&
bx00000000000000000000000001 Z!
bx000000000000000000000000000 Z!
b11011 [!
b11001100000000000000000000000000 L!
b11010 M!
b10011111100 S!
#540
0!
0&
#550
1!
1&
bx000000000000000000000000001 Z!
bx0000000000000000000000000000 Z!
b11100 [!
b1001111110 S!
b10011000000000000000000000000000 L!
b11011 M!
#560
0!
0&
#570
1!
1&
bx0000000000000000000000000001 Z!
bx00000000000000000000000000000 Z!
b11101 [!
b110000000000000000000000000000 L!
b11100 M!
1T!
b100111111 S!
0R!
0J!
0E
0F
0Q!
0X!
1R!
1F
1X!
#580
0!
0&
#590
1!
1&
bx00000000000000000000000000001 Z!
bx000000000000000000000000000000 Z!
b11110 [!
0T!
b10011111 S!
b100010011111 S!
b1100000000000000000000000000000 L!
b11101 M!
0R!
0F
0X!
#600
0!
0&
#610
1!
1&
bx0000000000000000000000000000000 Z!
b11111 [!
b11000000000000000000000000000000 L!
b11110 M!
b10001001111 S!
1J!
1E
1Q!
1R!
1F
1X!
#620
0!
0&
#630
1!
1&
bx0000000000000000000000000000001 Z!
b0 Z!
b0 [!
1T!
b1000100111 S!
b10000000000000000000000000000000 L!
b11111 M!
0R!
0F
0X!
#640
0!
0&
#650
1!
1&
b1 [!
b0 L!
b0 M!
1K!
b100010011 S!
b100100010011 S!
0J!
0E
0Q!
1R!
1F
1X!
#660
0!
0&
#670
1!
1&
0K!
b1 Z!
b0 Z!
b10 [!
b10010001001 S!
b110010001001 S!
b1 M!
#680
0!
0&
#690
1!
1&
b1 Z!
b0 Z!
b11 [!
b11001000100 S!
b111001000100 S!
b10 M!
#700
0!
0&
#710
1!
1&
b1 Z!
b0 Z!
b100 [!
b11 M!
b11100100010 S!
b111100100010 S!
#720
0!
0&
#730
1!
1&
b1 Z!
b0 Z!
b101 [!
b11110010001 S!
b111110010001 S!
b100 M!
#740
0!
0&
#750
1!
1&
b1 Z!
b0 Z!
b110 [!
b101 M!
0T!
b11111001000 S!
b111111001000 S!
0R!
0F
0X!
#760
0!
0&
#770
1!
1&
b111 [!
b11111100100 S!
b110 M!
#780
0!
0&
#790
1!
1&
b1000 [!
b111 M!
1T!
b1111110010 S!
1R!
1F
1X!
#800
0!
0&
#810
1!
1&
b1 Z!
b0 Z!
b1001 [!
0T!
b111111001 S!
b100111111001 S!
b1000 M!
0R!
0F
0X!
#820
0!
0&
#830
1!
1&
b1010 [!
b1001 M!
b10011111100 S!
#840
0!
0&
#850
1!
1&
b1011 [!
b1001111110 S!
b1010 M!
#860
0!
0&
#870
1!
1&
b1100 [!
b1011 M!
1T!
b100111111 S!
1R!
1F
1X!
#880
0!
0&
#890
1!
1&
b1 Z!
b0 Z!
b1101 [!
0T!
b10011111 S!
b100010011111 S!
b1100 M!
0R!
0F
0X!
#900
0!
0&
#910
1!
1&
b1110 [!
b1101 M!
b10001001111 S!
#920
0!
0&
#930
1!
1&
b1111 [!
1T!
b1000100111 S!
b1110 M!
1R!
1F
1X!
#940
0!
0&
#950
1!
1&
b1 Z!
b0 Z!
b10000 [!
b1111 M!
b100010011 S!
b100100010011 S!
#960
0!
0&
#970
1!
1&
b1 Z!
b0 Z!
b10001 [!
b10010001001 S!
b110010001001 S!
b10000 M!
#980
0!
0&
#990
1!
1&
b1 Z!
b0 Z!
b10010 [!
b10001 M!
b11001000100 S!
b111001000100 S!
#1000
0!
0&
#1010
1!
1&
b1 Z!
b0 Z!
b10011 [!
b11100100010 S!
b111100100010 S!
b10010 M!
#1020
0!
0&
#1030
1!
1&
b1 Z!
b0 Z!
b10100 [!
b10011 M!
b11110010001 S!
b111110010001 S!
#1040
0!
0&
#1050
1!
1&
b1 Z!
b0 Z!
b10101 [!
0T!
b11111001000 S!
b111111001000 S!
b10100 M!
0R!
0F
0X!
#1060
0!
0&
#1070
1!
1&
b10110 [!
b10101 M!
b11111100100 S!
#1080
0!
0&
#1090
1!
1&
b10111 [!
1T!
b1111110010 S!
b10110 M!
1R!
1F
1X!
#1100
0!
0&
#1110
1!
1&
b1 Z!
b0 Z!
b11000 [!
b10111 M!
0T!
b111111001 S!
b100111111001 S!
0R!
0F
0X!
#1120
0!
0&
#1130
1!
1&
b11001 [!
b10011111100 S!
b11000 M!
#1140
0!
0&
#1150
1!
1&
b11010 [!
b11001 M!
b1001111110 S!
#1160
0!
0&
#1170
1!
1&
b11011 [!
1T!
b100111111 S!
b11010 M!
1R!
1F
1X!
#1180
0!
0&
#1190
1!
1&
b1 Z!
b0 Z!
b11100 [!
b11011 M!
0T!
b10011111 S!
b100010011111 S!
0R!
0F
0X!
#1200
0!
0&
#1210
1!
1&
b11101 [!
b10001001111 S!
b11100 M!
#1220
0!
0&
#1230
1!
1&
b11110 [!
b11101 M!
1T!
b1000100111 S!
1R!
1F
1X!
#1240
0!
0&
#1250
1!
1&
b1 Z!
b0 Z!
b11111 [!
b100010011 S!
b100100010011 S!
b11110 M!
#1260
0!
0&
#1270
1!
1&
b1 Z!
b0 Z!
b0 [!
b11111 M!
b10010001001 S!
b110010001001 S!
#1280
0!
0&
#1290
1!
1&
b1 Z!
b0 Z!
b1 [!
b11001000100 S!
b111001000100 S!
b0 M!
1K!
#1300
0!
0&
#1310
1!
1&
0K!
b1 Z!
b0 Z!
b10 [!
b1 M!
b11100100010 S!
b111100100010 S!
#1320
0!
0&
#1330
1!
1&
b1 Z!
b0 Z!
b11 [!
b11110010001 S!
b111110010001 S!
b10 M!
#1340
0!
0&
#1350
1!
1&
b1 Z!
b0 Z!
b100 [!
b11 M!
0T!
b11111001000 S!
b111111001000 S!
0R!
0F
0X!
#1360
0!
0&
#1370
1!
1&
b101 [!
b11111100100 S!
b100 M!
#1380
0!
0&
#1390
1!
1&
b110 [!
b101 M!
1T!
b1111110010 S!
1R!
1F
1X!
#1400
0!
0&
#1410
1!
1&
b1 Z!
b0 Z!
b111 [!
0T!
b111111001 S!
b100111111001 S!
b110 M!
0R!
0F
0X!
#1420
0!
0&
#1430
1!
1&
b1000 [!
b111 M!
b10011111100 S!
#1440
0!
0&
#1450
1!
1&
b1001 [!
b1001111110 S!
b1000 M!
#1460
0!
0&
#1470
1!
1&
b1010 [!
b1001 M!
1T!
b100111111 S!
1R!
1F
1X!
#1480
0!
0&
#1490
1!
1&
b1 Z!
b0 Z!
b1011 [!
0T!
b10011111 S!
b100010011111 S!
b1010 M!
0R!
0F
0X!
#1500
0!
0&
#1510
1!
1&
b1100 [!
b1011 M!
b10001001111 S!
#1520
0!
0&
#1530
1!
1&
b1101 [!
1T!
b1000100111 S!
b1100 M!
1R!
1F
1X!
#1540
0!
0&
#1550
1!
1&
b1 Z!
b0 Z!
b1110 [!
b1101 M!
b100010011 S!
b100100010011 S!
#1560
0!
0&
#1570
1!
1&
b1 Z!
b0 Z!
b1111 [!
b10010001001 S!
b110010001001 S!
b1110 M!
#1580
0!
0&
#1590
1!
1&
b1 Z!
b0 Z!
b10000 [!
b1111 M!
b11001000100 S!
b111001000100 S!
#1600
0!
0&
#1610
1!
1&
b1 Z!
b0 Z!
b10001 [!
b11100100010 S!
b111100100010 S!
b10000 M!
#1620
0!
0&
#1630
1!
1&
b1 Z!
b0 Z!
b10010 [!
b10001 M!
b11110010001 S!
b111110010001 S!
#1640
0!
0&
#1650
1!
1&
b1 Z!
b0 Z!
b10011 [!
0T!
b11111001000 S!
b111111001000 S!
b10010 M!
0R!
0F
0X!
#1660
0!
0&
#1670
1!
1&
b10100 [!
b10011 M!
b11111100100 S!
#1680
0!
0&
#1690
1!
1&
b10101 [!
1T!
b1111110010 S!
b10100 M!
1R!
1F
1X!
#1700
0!
0&
#1710
1!
1&
b1 Z!
b0 Z!
b10110 [!
b10101 M!
0T!
b111111001 S!
b100111111001 S!
0R!
0F
0X!
#1720
0!
0&
#1730
1!
1&
b10111 [!
b10011111100 S!
b10110 M!
#1740
0!
0&
#1750
1!
1&
b11000 [!
b10111 M!
b1001111110 S!
#1760
0!
0&
#1770
1!
1&
b11001 [!
1T!
b100111111 S!
b11000 M!
1R!
1F
1X!
#1780
0!
0&
#1790
1!
1&
b1 Z!
b0 Z!
b11010 [!
b11001 M!
0T!
b10011111 S!
b100010011111 S!
0R!
0F
0X!
#1800
0!
0&
#1810
1!
1&
b11011 [!
b10001001111 S!
b11010 M!
#1820
0!
0&
#1830
1!
1&
b11100 [!
b11011 M!
1T!
b1000100111 S!
1R!
1F
1X!
#1840
0!
0&
#1850
1!
1&
b1 Z!
b0 Z!
b11101 [!
b100010011 S!
b100100010011 S!
b11100 M!
#1860
0!
0&
#1870
1!
1&
b1 Z!
b0 Z!
b11110 [!
b11101 M!
b10010001001 S!
b110010001001 S!
#1880
0!
0&
#1890
1!
1&
b1 Z!
b0 Z!
b11111 [!
b11001000100 S!
b111001000100 S!
b11110 M!
#1900
0!
0&
#1910
1!
1&
b1 Z!
b0 Z!
b0 [!
b11111 M!
b11100100010 S!
b111100100010 S!
#1920
0!
0&
#1930
1!
1&
b1 Z!
b0 Z!
b1 [!
b11110010001 S!
b111110010001 S!
b0 M!
1K!
#1940
0!
0&
#1950
1!
1&
0K!
b1 Z!
b0 Z!
b10 [!
b1 M!
0T!
b11111001000 S!
b111111001000 S!
0R!
0F
0X!
#1960
0!
0&
#1970
1!
1&
b11 [!
b11111100100 S!
b10 M!
#1980
0!
0&
#1990
1!
1&
b100 [!
b11 M!
1T!
b1111110010 S!
1R!
1F
1X!
